[
  {
    "model": "gateways.gateway",
    "pk": 1,
    "fields": {
      "title": "шлюз",
      "ip_address": "192.168.0.2",
      "ip_port": 123,
      "auth_login": "admin",
      "auth_passw": "admin",
      "gw_type": 0,
      "is_default": true,
      "enabled": true
    }
  },
  {
    "model": "gateways.gateway",
    "pk": 2,
    "fields": {
      "title": "дополнительный",
      "ip_address": "192.168.0.10",
      "ip_port": 123,
      "auth_login": "admin",
      "auth_passw": "admin",
      "gw_type": 0,
      "is_default": false,
      "enabled": true
    }
  }
]